…
9. You are a fisheries scientist studying cephalopod catch during 2008-2012. Identify the top five consumers (by country) of cephalopods (don't worry about species for now). Restrict the data frame only to our variables of interest.



```r
fisheries_tidy %>%
  select(country, sciname, spgroupname, commname, year, catch) %>%
  filter(sciname== "Cephalopoda") %>%
  filter(year >= 2008 & year<=2012) %>%
  arrange(desc(catch))
```

```
## # A tibble: 115 x 6
##    country  sciname    spgroupname               commname       year  catch
##    <chr>    <chr>      <chr>                     <chr>         <dbl>  <dbl>
##  1 Viet Nam Cephalopo~ Squids, cuttlefishes, oc~ Cephalopods ~  2010 260000
##  2 India    Cephalopo~ Squids, cuttlefishes, oc~ Cephalopods ~  2012  82456
##  3 India    Cephalopo~ Squids, cuttlefishes, oc~ Cephalopods ~  2011  75494
##  4 China    Cephalopo~ Squids, cuttlefishes, oc~ Cephalopods ~  2012  61821
##  5 India    Cephalopo~ Squids, cuttlefishes, oc~ Cephalopods ~  2008  55108
##  6 India    Cephalopo~ Squids, cuttlefishes, oc~ Cephalopods ~  2009  54562
##  7 China    Cephalopo~ Squids, cuttlefishes, oc~ Cephalopods ~  2009  53451
##  8 China    Cephalopo~ Squids, cuttlefishes, oc~ Cephalopods ~  2010  51274
##  9 India    Cephalopo~ Squids, cuttlefishes, oc~ Cephalopods ~  2012  14388
## 10 India    Cephalopo~ Squids, cuttlefishes, oc~ Cephalopods ~  2010  13593
## # ... with 105 more rows
```
…
