…
```
## -- Conflicts ---------------------------------------------------------------------------------------------------------------------------------- tidyverse_conflicts() --
## x dplyr::filter() masks stats::filter()
## x dplyr::lag()    masks stats::lag()
```

## Mammals Sleep
For this assignment, we are going to use built-in data on mammal sleep patterns.  

```r
msleep
```

```
## # A tibble: 83 x 11
##    name  genus vore  order conservation sleep_total sleep_rem sleep_cycle
##    <chr> <chr> <chr> <chr> <chr>              <dbl>     <dbl>       <dbl>
##  1 Chee~ Acin~ carni Carn~ lc                  12.1      NA        NA    
##  2 Owl ~ Aotus omni  Prim~ <NA>                17         1.8      NA    
##  3 Moun~ Aplo~ herbi Rode~ nt                  14.4       2.4      NA    
##  4 Grea~ Blar~ omni  Sori~ lc                  14.9       2.3       0.133
##  5 Cow   Bos   herbi Arti~ domesticated         4         0.7       0.667
##  6 Thre~ Brad~ herbi Pilo~ <NA>                14.4       2.2       0.767
##  7 Nort~ Call~ carni Carn~ vu                   8.7       1.4       0.383
##  8 Vesp~ Calo~ <NA>  Rode~ <NA>                 7        NA        NA    
##  9 Dog   Canis carni Carn~ domesticated        10.1       2.9       0.333
## 10 Roe ~ Capr~ herbi Arti~ lc                   3        NA        NA    
## # ... with 73 more rows, and 3 more variables: awake <dbl>, brainwt <dbl>,
## #   bodywt <dbl>
```
…
3. Make a new data frame focused on body weight, but be sure to indicate the common name and genus of each mammal. Sort the data in descending order by body weight.


```r
bodyweight_df <- select(msleep, name, genus, bodywt)

bodyweight_df
```

```
## # A tibble: 83 x 3
##    name                       genus        bodywt
##    <chr>                      <chr>         <dbl>
##  1 Cheetah                    Acinonyx     50    
##  2 Owl monkey                 Aotus         0.48 
##  3 Mountain beaver            Aplodontia    1.35 
##  4 Greater short-tailed shrew Blarina       0.019
##  5 Cow                        Bos         600    
##  6 Three-toed sloth           Bradypus      3.85 
##  7 Northern fur seal          Callorhinus  20.5  
##  8 Vesper mouse               Calomys       0.045
##  9 Dog                        Canis        14    
## 10 Roe deer                   Capreolus    14.8  
## # ... with 73 more rows
```



4. We are interested in two groups; small and large mammals. Let's define small as less than or equal to 1kg body weight and large as greater than or equal to 200kg body weight. For our study, we are interested in body weight and sleep total Make two new dataframes (large and small) based on these parameters. Sort the data in descending order by body weight.


```r
smallmammals_sleep_df <- msleep %>% filter(bodywt <= 1.0)
smallmammals_sleep_df <- arrange(smallmammals_sleep_df, desc(bodywt))
smallmammals_sleep_df
```

```
## # A tibble: 36 x 11
##    name  genus vore  order conservation sleep_total sleep_rem sleep_cycle
##    <chr> <chr> <chr> <chr> <chr>              <dbl>     <dbl>       <dbl>
##  1 Afri~ Cric~ omni  Rode~ <NA>                 8.3       2        NA    
##  2 Arct~ Sper~ herbi Rode~ lc                  16.6      NA        NA    
##  3 Tenr~ Tenr~ omni  Afro~ <NA>                15.6       2.3      NA    
##  4 Euro~ Erin~ omni  Erin~ lc                  10.1       3.5       0.283
##  5 Squi~ Saim~ omni  Prim~ <NA>                 9.6       1.4      NA    
##  6 Guin~ Cavis herbi Rode~ domesticated         9.4       0.8       0.217
##  7 Dese~ Para~ <NA>  Erin~ lc                  10.3       2.7      NA    
##  8 Owl ~ Aotus omni  Prim~ <NA>                17         1.8      NA    
##  9 Chin~ Chin~ herbi Rode~ domesticated        12.5       1.5       0.117
## 10 Thic~ Lutr~ carni Dide~ lc                  19.4       6.6      NA    
## # ... with 26 more rows, and 3 more variables: awake <dbl>, brainwt <dbl>,
## #   bodywt <dbl>
```
…
