…
The number on NAs per column(variable) is shown above, under name _Variable type:numeric : missing_
Each variable has some NAs for a total of 949 NAs

6. (3 points) Which cities in California have the highest number of colleges?


```r
    colleges %>%
        group_by(CITY) %>%
            summarize(total_count=n())%>%
                arrange(desc(total_count))
```

```
## # A tibble: 161 x 2
##    CITY          total_count
##    <chr>               <int>
##  1 Los Angeles            24
##  2 San Diego              18
##  3 San Francisco          15
##  4 Sacramento             10
##  5 Berkeley                9
##  6 Oakland                 9
##  7 Claremont               7
##  8 Pasadena                6
##  9 Fresno                  5
## 10 Irvine                  5
## # ... with 151 more rows
```
…
7. (4 points) The column `COSTT4_A` is the annual cost of each institution. Which city has the highest cost?

```r
    colleges %>%
        group_by(CITY) %>%
            filter(!is.na(COSTT4_A)) %>%
            summarize( mean_cost = mean(COSTT4_A),
                       max_cost = max(COSTT4_A)) %>%
                arrange(desc(max_cost))
```

```
## # A tibble: 132 x 3
##    CITY          mean_cost max_cost
##    <chr>             <dbl>    <dbl>
##  1 Claremont        66498     69355
##  2 Los Angeles      40796.    67225
##  3 Malibu           66152     66152
##  4 San Francisco    43700.    65453
##  5 Valencia         64686     64686
##  6 Orange           64501     64501
##  7 Pasadena         45616.    63471
##  8 Santa Clara      39008     62964
##  9 Redlands         61542     61542
## 10 Moraga           61095     61095
## # ... with 122 more rows
```
Cities with the most expensive schools: Claremont, Los Angeles, and Malibu


```r
   colleges %>%
        group_by(CITY) %>%
            filter(!is.na(COSTT4_A)) %>%
            summarize( mean_cost = mean(COSTT4_A),
                       max_cost = max(COSTT4_A)) %>%
                arrange(desc(mean_cost))
```

```
## # A tibble: 132 x 3
##    CITY                mean_cost max_cost
##    <chr>                   <dbl>    <dbl>
##  1 Claremont               66498    69355
##  2 Malibu                  66152    66152
##  3 Valencia                64686    64686
##  4 Orange                  64501    64501
##  5 Redlands                61542    61542
##  6 Moraga                  61095    61095
##  7 Atherton                56035    56035
##  8 Thousand Oaks           54373    54373
##  9 Rancho Palos Verdes     50758    50758
## 10 La Verne                50603    50603
## # ... with 122 more rows
```
…
